<svg xmlns="http://www.w3.org/2000/svg" width="18.844" height="30.204" viewBox="0 0 18.844 30.204">
  <path id="next-arrow" d="M-2079.225,27.271h0l-3.676-4.024,8.781-9.611-8.781-9.611L-2079.225,0l12.458,13.635-12.458,13.635Z" transform="translate(2084.256 1.482)" fill="#fff" stroke="#d0241f" stroke-width="2"/>
</svg>
